{
  "profiles": {
    "Infrastructure": {
      "commandName": "Project",
      "launchBrowser": true,
      "environmentVariables": {
        "ASPNETCORE_ENVIRONMENT": "Development"
      },
      "applicationUrl": "https://localhost:65516;http://localhost:65517"
    }
  }
}